TAP30 challenge
…
# this is a long format in which every cell name is included in one variable:
tapc_long_raw <- tapc_wide_raw %>% 
    gather(key = "coord", value = "requests",
           -day, -hour, -total_hour)
tapc_long_raw

## # A tibble: 46,848 x 5
##    total_hour   day  hour     coord requests
##         <int> <int> <int>     <chr>    <int>
##  1          1     1     1 coord_1.1        0
##  2          2     1     2 coord_1.1        0
##  3          3     1     3 coord_1.1        0
##  4          4     1     4 coord_1.1       NA
##  5          5     1     5 coord_1.1       NA
##  6          6     1     6 coord_1.1       NA
##  7          7     1     7 coord_1.1       NA
##  8          8     1     8 coord_1.1        3
##  9          9     1     9 coord_1.1       30
## 10         10     1    10 coord_1.1        5
## # ... with 46,838 more rows
…
